<?xml version="1.0" encoding="UTF-8" standalone="no"?>
<svg
   xmlns:dc="http://purl.org/dc/elements/1.1/"
   xmlns:cc="http://creativecommons.org/ns#"
   xmlns:rdf="http://www.w3.org/1999/02/22-rdf-syntax-ns#"
   xmlns:svg="http://www.w3.org/2000/svg"
   xmlns="http://www.w3.org/2000/svg"
   viewBox="0 0 840.14667 516.69067"
   height="516.69067"
   width="840.14667"
   xml:space="preserve"
   id="svg2"
   version="1.1"><metadata
     id="metadata8"><rdf:RDF><cc:Work
         rdf:about=""><dc:format>image/svg+xml</dc:format><dc:type
           rdf:resource="http://purl.org/dc/dcmitype/StillImage" /></cc:Work></rdf:RDF></metadata><defs
     id="defs6"><clipPath
       id="clipPath22"
       clipPathUnits="userSpaceOnUse"><path
         id="path20"
         d="M 0,387.518 H 630.11 V 0 H 0 Z" /></clipPath></defs><g
     transform="matrix(1.3333333,0,0,-1.3333333,0,516.69067)"
     id="g10"><text
       id="text14"
       style="font-variant:normal;font-weight:normal;font-stretch:normal;font-size:98.71769714px;font-family:'Microsoft Himalaya';-inkscape-font-specification:MicrosoftHimalaya;writing-mode:lr-tb;fill:#6d6f71;fill-opacity:1;fill-rule:nonzero;stroke:none"
       transform="matrix(1,0,0,-1,303.2144,184.0972)"><tspan
         id="tspan12"
         y="0"
         x="0 40.375538 73.445969 102.76513 128.53044 176.30981">EyesOn</tspan></text>
<g
       id="g16"><g
         clip-path="url(#clipPath22)"
         id="g18"><g
           transform="translate(156.3994,228.2871)"
           id="g24"><path
             id="path26"
             style="fill:#000000;fill-opacity:1;fill-rule:nonzero;stroke:none"
             d="m 0,0 -18.933,-46.001 h -1.237 l -16.819,38.733 c -0.494,1.22 -0.948,2.201 -1.36,2.944 -0.413,0.741 -0.866,1.326 -1.36,1.755 -0.495,0.428 -1.089,0.733 -1.781,0.915 -0.693,0.181 -1.567,0.322 -2.622,0.42 V 0.003 L -33.176,0.026 -17.746,-35.76 -3.341,0 Z" /></g><g
           transform="translate(182.8972,227.8242)"
           id="g28"><path
             id="path30"
             style="fill:#000000;fill-opacity:1;fill-rule:nonzero;stroke:none"
             d="m 0,0 h 12.169 l 27.503,-33.736 v 33.707 h 2.92 V -45.707 H 41.405 L 11.774,-9.497 V -44.946 H 8.855 v 39.01 c -0.66,0.792 -1.212,1.418 -1.657,1.88 -0.445,0.462 -0.865,0.84 -1.261,1.138 C 5.541,-2.622 5.112,-2.374 4.65,-2.177 4.188,-1.979 3.611,-1.764 2.919,-1.533 2.259,-1.335 1.287,-1.237 0,-1.237 Z" /></g><g
           transform="translate(273.8911,225.4126)"
           id="g32"><path
             id="path34"
             style="fill:#000000;fill-opacity:1;fill-rule:nonzero;stroke:none"
             d="m 0,0 0.817,-11.884 h -1.04 c -1.385,4.583 -3.339,7.881 -5.861,9.893 -2.523,2.011 -5.565,3.018 -9.126,3.018 -2.309,0 -4.437,-0.437 -6.382,-1.311 -1.947,-0.874 -3.62,-2.218 -5.021,-4.032 -1.402,-1.813 -2.498,-4.089 -3.289,-6.826 -0.792,-2.738 -1.187,-5.969 -1.187,-9.696 0,-3.001 0.37,-5.721 1.112,-8.161 0.742,-2.441 1.83,-4.527 3.265,-6.258 1.435,-1.732 3.19,-3.067 5.268,-4.007 2.077,-0.939 4.469,-1.409 7.173,-1.409 2.836,0 5.408,0.625 7.717,1.879 2.209,1.154 4.666,3.627 7.371,7.421 l 1.037,-0.644 c -2.274,-3.991 -4.905,-6.918 -7.889,-8.78 -2.985,-1.863 -6.555,-2.795 -10.71,-2.795 -3.198,0 -6.134,0.562 -8.804,1.682 -2.672,1.12 -4.972,2.696 -6.901,4.723 -1.929,2.029 -3.438,4.436 -4.527,7.223 -1.087,2.786 -1.631,5.845 -1.631,9.176 0,4.518 1.005,8.64 3.016,12.367 1.979,3.759 4.732,6.66 8.262,8.706 3.562,2.077 7.419,3.116 11.574,3.116 3.266,0 6.464,-0.792 9.597,-2.374 0.923,-0.495 3.181,-2.463 3.88,-2.451 C -0.725,-1.398 0,0 0,0" /></g><path
           id="path36"
           style="fill:#000000;fill-opacity:1;fill-rule:nonzero;stroke:none"
           d="m 175.666,182.917 h -6.372 v 44.904 h 6.372 z" /><path
           id="path38"
           style="fill:#000000;fill-opacity:1;fill-rule:nonzero;stroke:none"
           d="m 292.485,182.878 h -6.319 v 44.91 h 6.319 z" /><g
           transform="translate(525.5516,224.0542)"
           id="g40"><path
             id="path42"
             style="fill:#211915;fill-opacity:1;fill-rule:nonzero;stroke:none"
             d="m 0,0 c -5.268,0 -9.554,-4.286 -9.554,-9.554 0,-5.268 4.286,-9.554 9.554,-9.554 5.268,0 9.554,4.286 9.554,9.554 C 9.554,-4.286 5.268,0 0,0 m 0,-19.378 c -5.417,0 -9.824,4.407 -9.824,9.824 0,5.417 4.407,9.824 9.824,9.824 5.417,0 9.824,-4.407 9.824,-9.824 0,-5.417 -4.407,-9.824 -9.824,-9.824" /></g><g
           transform="translate(525.6131,227.1636)"
           id="g44"><path
             id="path46"
             style="fill:#211915;fill-opacity:1;fill-rule:nonzero;stroke:none"
             d="m 0,0 c -6.983,0 -12.664,-5.681 -12.664,-12.664 0,-6.982 5.681,-12.663 12.664,-12.663 6.983,0 12.664,5.681 12.664,12.663 C 12.664,-5.681 6.983,0 0,0 m 0,-25.685 c -7.18,0 -13.021,5.841 -13.021,13.021 0,7.181 5.841,13.022 13.021,13.022 7.18,0 13.022,-5.841 13.022,-13.022 0,-7.18 -5.842,-13.021 -13.022,-13.021" /></g><g
           transform="translate(525.5778,225.4085)"
           id="g48"><path
             id="path50"
             style="fill:#211915;fill-opacity:1;fill-rule:nonzero;stroke:none"
             d="m 0,0 c -6.001,0 -10.883,-4.882 -10.883,-10.883 0,-6.001 4.882,-10.883 10.883,-10.883 6.001,0 10.883,4.882 10.883,10.883 C 10.883,-4.882 6.001,0 0,0 m 0,-22.021 c -6.141,0 -11.138,4.997 -11.138,11.138 0,6.141 4.997,11.138 11.138,11.138 6.141,0 11.138,-4.997 11.138,-11.138 0,-6.141 -4.997,-11.138 -11.138,-11.138" /></g><g
           transform="translate(529.6721,210.5896)"
           id="g52"><path
             id="path54"
             style="fill:#211915;fill-opacity:1;fill-rule:nonzero;stroke:none"
             d="m 0,0 -1.813,2.472 -1.62,0.934 m -4.637,-3.621 2.471,1.813 0.934,1.62 M -0.16,8.016 -2.632,6.203 -3.566,4.582 m -4.628,3.237 1.813,-2.472 1.62,-0.934 m 1.886,-2.727 -1.191,2.001 0.074,-9.691 z m -3.508,0.926 2,1.19 -9.744,0.02 z m 4.579,2.572 -2,-1.191 9.691,-0.077 z m -3.584,1.025 1.19,-2 0.078,9.691 z m 1.318,8.767 1.392,-8.584 3.552,2.49 -2.49,-3.544 8.592,-1.473 -8.592,-1.391 2.49,-3.513 -3.552,2.487 -1.392,-8.665 -1.501,8.665 -3.516,-2.487 2.527,3.513 -8.657,1.391 8.657,1.473 -2.527,3.544 3.553,-2.469 z" /></g></g></g></g></svg>